<svg width="100%" height="100%" viewBox="0 0 338 70" version="1.1" xmlns="http://www.w3.org/2000/svg" xmlnsXlink="http://www.w3.org/1999/xlink" xmlSpace="preserve" xmlnsSerif="http://www.serif.com/" style="fill-rule:evenodd;clip-rule:evenodd;stroke-linejoin:round;stroke-miterlimit:2;">
    <g id="radiomii" transform="matrix(1.43759,0,0,1.01076,-4.86909,-3.7197)">
        <rect x="3.387" y="3.68" width="234.712" height="69.137" style="fill:none;"/>
        <clipPath id="_clip1">
            <rect x="3.387" y="3.68" width="234.712" height="69.137"/>
        </clipPath>
        <g clip-path="url(#_clip1)">
            <g transform="matrix(0.348366,0,0,0.618224,-230.41,-88.1952)">
                <g id="y" transform="matrix(2.42687,0,0,1.9415,90.9802,-2836.58)">
                    <g transform="matrix(0.9,0,0,0.82,23.5304,286.918)">
                        <text x="235.304px" y="1593.99px" style="font-family:'Helvetica-Bold', 'Helvetica';font-weight:700;font-size:93.28px;fill:white;">r<tspan x="265.075px 310.423px 360.873px 380.259px " y="1593.99px 1593.99px 1593.99px 1593.99px ">adio</tspan></text>
                    </g>
                    <g transform="matrix(0.9,0,0,0.82,41.1168,286.918)">
                        <text x="411.168px" y="1593.99px" style="font-family:'Helvetica-Bold', 'Helvetica';font-weight:700;font-size:93.28px;fill:rgb(134,134,134);">M<tspan x="482.342px 501.728px " y="1593.99px 1593.99px ">ii</tspan></text>
                    </g>
                </g>
                <g transform="matrix(1.99678,0,0,1.69112,606.974,-31.7125)">
                    <rect x="325.996" y="107.813" width="14.398" height="11.212" style="fill:rgb(250,125,24);"/>
                </g>
                <g transform="matrix(1.99678,0,0,1.69112,649.318,-31.7125)">
                    <rect x="325.996" y="107.813" width="14.398" height="11.212" style="fill:rgb(250,125,24);"/>
                </g>
            </g>
        </g>
    </g>
</svg>
